{"total":7,"page":1,"size":2,"pages":4,"items":[{"id":7,"title":"How courts are coping with a flood of AI-generated lawsuits","url":"https://www.technologyreview.com/2026/06/04/1138391/courts-coping-ai-lawsuits/","source":"MIT Technology Review","content":"","summary":null,"summary_points":null,"impact":null,"crawled_at":"2026-06-08T12:51:03.100777","summarized_at":null,"status":"failed"},{"id":6,"title":"The Download: AI-generated lawsuits and virtual power plants for data centers","url":"https://www.technologyreview.com/2026/06/04/1138408/the-download-ai-lawsuits-virtual-power-plants-data-centers/","source":"MIT Technology Review","content":"The Download: AI-generated lawsuits and virtual power plants for data centers\nPlus: The EU has proposed new legislation to end its Big Tech dependence.\nThis is today's edition of The Download, our weekday newsletter that provides a daily dose of what's going on in the world of technology.\nHow courts are coping with a flood of AI-generated lawsuits\nMost days in her chambers, Judge Maritza Braswell, a federal magistrate judge in Colorado, sifts through stacks of documents written by people without a lawyer. The number of these filings has more than doubled compared to before 2023. She puts that jump down to AI.\nBut while AI appears to be expanding access to justice, it doesn’t seem to be improving people’s chances of winning. Judges are starting to question what rights and duties chatbots should have as they stand in for lawyers. Lawmakers, meanwhile, are grappling with who should pay the price when chatbots produce bad legal advice.\nRead the full story on how AI is reshaping access to the law.\n—Michelle Kim\nHow virtual power plants could provide energy for data centers\nWould you take a payment to ramp down your electricity use? Would it change anything if you were doing so to help power a local data center? A new project backed by Google will put those questions to the test.\nThe company has signed a deal to fund a virtual power plant in the largest power grid in the US. The system will group together devices like electric vehicles and smart thermostats, paying customers to adjust their usage when the grid is stretched.\nThe project could free up capacity for Google’s data centers—but there’s a catch: people might not play along. Find out what the future holds for these virtual power plants.\n—Casey Crownhart\nThis story is from The Spark, our weekly newsletter giving you the inside track on all things climate. Sign up to receive it in your inbox every Wednesday.\nThe must-reads\nI’ve combed the internet to find you today’s most fun/important/scary/fascinating stories about technology.\n1 The EU has proposed new legislation to end its Big Tech dependence\nThe laws aim to boost domestic cloud, AI and semiconductors. (CNBC)\n+ US firms would be blocked from critical public tenders. (Reuters $)\n+ It also wants to make sure non-EU actors cannot disrupt tech services with a \"kill switch.\" (The Guardian)\n+ But the proposal needs to be negotiated with EU member states. (Politico $)\n2 Intelligence agencies warn Chinese spies are recruiting on LinkedIn\nThe Five Eyes alliance said Beijing is using job platforms for espionage. (BBC)\n+ The spies are allegedly recruiting government and military staff. (Politico $)\n+ The Chinese embassy in the UK condemned the accusations. (Bloomberg $)\n+ Meet the man hunting the spies in your smartphone. (MIT Technology Review)\n3 AI CEOs have called for a law protecting against biological weapons\nThey warn that synthetic DNA could be used for bioweapons. (Wired $)\n+ Sam Altman, Dario Amodei, and Demis Hassabis joined the call. (WSJ $)\n+ No one’s sure if synthetic mirror life will kill us all. (MIT Technology Review)\n4 Firms are using Reddit to manipulate ChatGPT and Google AI search\nThey’re spamming subreddits to get posts scraped by chatbots. (404 Media)\n+ What we’ve been getting wrong about AI’s truth crisis. (MIT Technology Review)\n5 Meta keeps delaying the launch of its new AI model\nThe new Muse Spark AI model API still has no release date. (WSJ $)\n+ Which is hampering Meta’s plans to monetize its AI investments. (Reuters $)\n6 For the first time, a US city has voted to permanently ban data centers\nMonterey Park, California, voted in favor of the move. (LA Times)\n+ Should we be moving data centers to space? (MIT Technology Review)\n7 China is betting on household chore training to advance robotics\nData harvested in homes and factories provides a scaling edge. (Rest of World)\n+ Gig workers are training humanoids at home. (MIT Technology Review)\n8 Sam Altman will urge US lawmakers not to require AI model approvals\nHe’s advocating against proposals for new AI rules. (Reuters $)\n+ His move comes after President Trump signed a new AI order. (Wired $)\n9 Quantinuum raised $1.68 billion in an IPO as quantum computing rises \nInvestors flocked to one of the fast-growing sector’s leaders. (Reuters $)\n10 Someone finally wants to hire philosophers: Silicon Valley\nBig tech hopes they will help build better machines. (The Atlantic $)\nQuote of the day\n“Historically, these companies have been very willing to play Russian roulette—and they’re playing another round.”\n  —Connor Leahy, an AI researcher, former hacker and US director of ControlAI, tells the Financial Times why he’s concerned about Anthropic's relentless race to the top.\nOne More Thing\nWhat an octopus’s mind can teach us about AI’s ultimate mystery\n  Emily Bender, a linguist at the University of Washington, has developed a thought experiment she calls the octopus test. It involves an octopus learning to copy patterns in human writing and produce squiggles in response. But does the animal actually understand the language or are we merely projecting meaning onto it?\nBender’s octopus is a stand-in for AI systems like ChatGPT. The intelligence we see in these machines is also projected on them by us. The same applies to consciousness: we may claim to see it, but it remains unclear whether it is really there.\nRead the full story on the debate over machines with minds.\n—Will Douglas Heaven\nWe can still have nice things\nA place for comfort, fun, and distraction to brighten up your day. (Got any ideas? Drop me a line.)\n+ Discover where iconic sound effects actually came from in this fabulous audio history.\n+ Need a serotonin boost? Then tune into this live puppy cam from Denali National Park.\n+ Linux lovers can try 570 extinct operating systems at a new virtual museum.\n+ Beethoven’s “Moonlight Sonata” becomes something entirely different in this lightning-fast bass guitar performance. \nDeep Dive\nThe Download\nThe Download: DeepSeek’s latest AI breakthrough, and the race to build world models\nPlus: China has blocked Meta’s $2 billion acquisition of AI startup Manus.\nThe Download: introducing the 10 Things That Matter in AI Right Now\nPlus: An unauthorized group has reportedly accessed Anthropic’s Mythos.\nThe Download: supercharged scams and studying AI healthcare\nPlus: DeepSeek has unveiled its long-awaited new AI model.\nThe Download: keeping up with AI, and the future of IVF\nPlus: NASA unveiled plans for three uncrewed missions to the Moon this year.\nStay connected\nGet the latest updates from\nMIT Technology Review\nDiscover special offers, top stories, upcoming events, and more.","summary":"文章核心讨论了AI技术在不同领域的应用与挑战。首先，AI生成的法律诉讼文件数量激增，给法院带来压力，法官质疑AI代理的效用并探讨责任归属问题。其次，Google支持虚拟电厂项目，通过聚合智能设备调整用电来为数据中心提供能源，但面临用户参与度不足的挑战。此外，文章还涵盖了欧盟新立法以减少对大科技公司的依赖、间谍活动警告、AI CEO呼吁保护生物武器等科技新闻，整体展示了AI快速发展及其在法律、能源和社会层面的广泛影响。","summary_points":"[\"AI生成的法律诉讼文件数量增加，但法官质疑其效果并讨论AI代理的责任问题。\", \"Google资助虚拟电厂项目，通过聚合智能设备为数据中心提供能源，但需克服用户参与挑战。\", \"欧盟提出新立法以增强科技自主，减少对美国大科技公司的依赖。\", \"AI CEO们警告合成DNA可能被用于生物武器，呼吁立法保护。\", \"公司利用Reddit操纵AI搜索结果，影响AI信息准确性。\"]","impact":"AI在法律领域的应用促使行业思考伦理和法规问题，可能推动AI工具的设计改进。在能源方面，AI驱动的虚拟电厂可优化数据中心能源管理，促进可持续发展。同时，AI面临准确性和操纵挑战，要求加强监管和透明度，以确保系统可靠性和公众信任。","crawled_at":"2026-06-08T12:50:02.340064","summarized_at":"2026-06-08T12:50:42.095807","status":"summarized"}]}